Landarediaren aldaketa
…
Inv_simple$area <- Inv_simple|>
  st_area() |> 
  units::set_units(hectare)

Inv_simple <- Inv_simple  |>  
  mutate(area= as.double(round(area,2)))

Inv_simple 

Simple feature collection with 10719 features and 8 fields
Geometry type: GEOMETRY
Dimension:     XY
Bounding box:  xmin: 513893.3 ymin: 4787789 xmax: 521017.4 ymax: 4793354
Projected CRS: ETRS89 / UTM zone 30N
# A tibble: 10,719 × 9
   Klase     Tipo  Estado Urte  Herria Area_osoa                  geometry Mota 
 * <chr>     <chr> <chr>  <chr> <chr>      <dbl>            <GEOMETRY [m]> <chr>
 1 Autopist… <NA>  <NA>   2005  Larra…     2153. MULTIPOLYGON (((515200 4… Otros
 2 Bosque d… Pinu… Fustal 2005  Larra…     2153. POLYGON ((517180.4 47931… Coní…
 3 Bosque d… Pinu… Fustal 2005  Larra…     2153. MULTIPOLYGON (((520670.6… Coní…
 4 Bosque d… Euca… Latiz… 2005  Larra…     2153. POLYGON ((516145.4 47930… Euca…
 5 Infraest… <NA>  <NA>   2005  Larra…     2153. POLYGON ((516934.5 47932… Otros
 6 Bosque d… Pinu… Latiz… 2005  Larra…     2153. POLYGON ((516720 4793197… Coní…
 7 Bosque d… Euca… Latiz… 2005  Larra…     2153. POLYGON ((516720.1 47931… Euca…
 8 Bosque d… Euca… Latiz… 2005  Larra…     2153. MULTIPOLYGON (((517436.7… Euca…
 9 Bosque d… Pinu… Monte… 2005  Larra…     2153. POLYGON ((516239.9 47931… Coní…
10 Bosque d… Pinu… Fustal 2005  Larra…     2153. POLYGON ((516994.9 47931… Coní…
# ℹ 10,709 more rows
# ℹ 1 more variable: area <dbl>
…
